*** Life<FredkinCell> 8x15 ***

Generation = 0, Population = 79.
00000-0-000000-
--0--000----000
0-0-0-00-0--0-0
0---00-00-00000
00-000-00000-0-
-00-00000-00000
000--0-000--0-0
00--000--00-000

*** Life<FredkinCell> 10x2 ***

Generation = 0, Population = 20.
00
00
00
00
00
00
00
00
00
00

Generation = 5, Population = 4.
--
22
--
--
--
--
--
--
22
--

Generation = 10, Population = 4.
--
--
--
44
--
--
44
--
--
--

*** Life<FredkinCell> 11x13 ***

Generation = 0, Population = 77.
000-000-0---0
-0-0-0-----00
0-00-0-0-000-
00-00--0---0-
-000---00----
-----000000--
00-000-0-0---
0--0--00000-0
---0---0-0-00
-00-000-00-00
-0000-000000-

Generation = 2, Population = 71.
-2-12-2--100-
1--210---1000
202--2020--2-
0------001021
0-00--0--0-1-
-0-0-0--2----
0-0---0-0---1
2-----2--02-2
110--1120---2
--00--00--12-
1--00-002--0-

Generation = 4, Population = 71.
12----2-1-201
-2-2-011----2
40--02040----
-00-1110-30-3
--2-----12--0
-0---0--4-11-
-200-020-0-1-
20--002-1----
---1131-20-0-
-0----2--23--
1-10-0--4-021

Generation = 6, Population = 83.
3-22-141-1401
--0--01-1----
-23-02042--2-
0-01-3-013--5
--41--1112--2
1-1---0------
1402124-1---3
4---0041-230-
2-133533---04
00-0-1421--31
11-2-0-24-0-3

Generation = 8, Population = 72.
3-2-2---23-03
--0--23--12-4
--5----6---2-
0121252-13-27
-1-1--1-32---
---21-0---210
34--3--2-0-23
400-2-413----
-2355---2---4
-01--3--13333
1---1--2-103-

Generation = 10, Population = 77.
3-------4--2-
-30-245-214-6
-351-22----41
-3432---1---9
1-61-01232023
-1221-20--430
3-1234-4-012-
-00-2-6---3--
2-3555----1--
-01----2-5-5-
-134-11--12--

Generation = 12, Population = 73.
-2-3-2--634-3
23-34---2--08
6551--2-3----
134-4--133-39
1-830--4-2245
332-----5---0
-4-4---6-2---
5-2-2----33--
2--5-7--2--15
1031-352--45-
----133--1-34

*** Life<FredkinCell> 17x14 ***

Generation = 0, Population = 96.
------0-0-0--0
00----0--0----
0---0--0-0---0
00-------0-0--
0---0-----0-0-
-0-00-000-----
-0-0-000-0-0--
---0000---0-00
--0----0--0--0
--00-0---0----
0-----00-0-00-
00-000000---00
-0-0-00000----
00--00---0-00-
---0-0--0----0
-0----000-00-0
-0--0-0--0--00

Generation = 4, Population = 119.
--1-1-20---3-2
04-0---2041--1
010-2--0--10--
-111-100--0-03
1---4--11---2-
----0-222-031-
--000-0--00-21
100201--222--0
-1--10003-1-1-
-0-4----1--311
-2-2112--41-01
01--1---0-000-
-2-4--2----0-3
2--124-0----4-
0-----------01
341---20-1-1-1
0-3---20--004-

Generation = 8, Population = 121.
-2-1--41-2-514
2-1-1--4---0--
-12-42--112-20
-2--0--2-2--15
11-3-1--1-1-22
--401-4--3--30
2--1--2---1---
2--4131-----4-
-31--1-2513-33
12-51-2--21--3
---22--4-5-522
15223---0-14-3
5---1---413--4
4-1-4--033---3
13-3-1-03---21
5512----0---03
-2--0-220-2--2

Generation = 12, Population = 113.
22--2---2-2-1-
3-3-2---07--3-
21--8--1-36-2-
-2--250--4---6
---5---4--1---
-1-2-2------4-
-313403-2--2--
-1363---4--1--
13---5--72--33
-2-51----33413
54-3--45363--4
----7-2--4-44-
6---1---5--2-4
422-57--3-1-8-
-30--110-0223-
571-0351023-1-
3-4---620-----

Generation = 16, Population = 122.
--52436--5--3-
37-12-3-07---3
-1--+4----8--1
16-63-----4--6
---96114-214-3
2384-3-7-35351
--55-1---22---
----3-2-4--5--
3-324--6--5---
-2362-2-34552-
-4--6-6-4----6
--35--6--5-4--
73---42-9--4--
-44359----52+4
34-----24--275
7+52-4-144---4
-66113-412-5-5

*** Life<FredkinCell> 12x20 ***

Generation = 0, Population = 91.
0-0---00--00-00-0-00
0-----00---000--0---
0-0-0000-0--0----0--
--0----0--0-0-0--00-
0-0---00-0-0-------0
-0----0-000--0--00--
00-----0-00----0--00
-------0-00-------00
--0---0----0-00-0---
-0-0----00-00----0--
--0------00-0-0000-0
-0----0-0--0--0---00

Generation = 3, Population = 131.
10--1--0-2302---3---
-00---13----31-2---0
101--13-100--1-11-1-
020----10--2--120--1
02---0--21-11201001-
---1-0---1-0-00013-0
-0-10101211210-0--00
-001---3-110-2-002--
0110-----------1-10-
000-0--0-02-010-01--
---0102-2--0-0--002-
0-00100-1-1002---030

Generation = 6, Population = 118.
-0-22--1--40-01-----
-3---11411-0--0-30--
-040-4--20-----22-10
1-----0-1-------1-32
0-12-12-22-4-3-1--40
2-0-01--3---1-1--41-
-314-40232-31311--11
--320-0-2----31--32-
0--1----1112-3---21-
-3011---21-032-3-2-1
1---23225-43---2--22
0---2--04-2-1--0----

Generation = 9, Population = 107.
---551-4-4--2-2--022
--0-----21-3-23---00
1--1253-5----3--5--0
2300-114--1---22---5
--25---15515-42---51
5-----2131--4-----22
--2-0-1-433---22-2--
0-----1-3------3----
-1--212--2---32---1-
0-0-2--03-51--1----2
--0--42-8-------215-
12-332---053-2-100-4

Generation = 12, Population = 122.
431--2052581233251-2
15---21--------4--01
--6--6--6---26-5--2-
-41-1-44-3-6-0-330-6
03-63----8--253----2
-3043---3--1422-5-2-
2---1---744--63313--
1-321--46-4117--0--0
0---22----2-343--320
-713-03-3----225--02
--11-5---25--3------
433---1--1542---3-7-
